…
```r
# check that you produced what you wanted:
gapminder %>% 
  dplyr::arrange(continent, year) %>% 
  group_by(continent, year) %>% 
  summarize(med_lifeExp = median(lifeExp))
```

```
## # A tibble: 60 x 3
## # Groups:   continent [5]
##    continent  year med_lifeExp
##    <fct>     <int>       <dbl>
##  1 Africa     1952        38.8
##  2 Africa     1957        40.6
##  3 Africa     1962        42.6
##  4 Africa     1967        44.7
##  5 Africa     1972        47.0
##  6 Africa     1977        49.3
##  7 Africa     1982        50.8
##  8 Africa     1987        51.6
##  9 Africa     1992        52.4
## 10 Africa     1997        52.8
## # ... with 50 more rows
```
…
